<?xml version="1.0" encoding="UTF-8" standalone="no"?>
<svg
   xmlns:dc="http://purl.org/dc/elements/1.1/"
   xmlns:cc="http://creativecommons.org/ns#"
   xmlns:rdf="http://www.w3.org/1999/02/22-rdf-syntax-ns#"
   xmlns:svg="http://www.w3.org/2000/svg"
   xmlns="http://www.w3.org/2000/svg"
   viewBox="0 0 480 81.066666"
   height="81.066666"
   width="480"
   xml:space="preserve"
   id="svg2"
   version="1.1"><metadata
     id="metadata8"><rdf:RDF><cc:Work
         rdf:about=""><dc:format>image/svg+xml</dc:format><dc:type
           rdf:resource="http://purl.org/dc/dcmitype/StillImage" /></cc:Work></rdf:RDF></metadata><defs
     id="defs6" /><g
     transform="matrix(1.3333333,0,0,-1.3333333,0,81.066665)"
     id="g10"><g
       id="g12"><g
         transform="matrix(1,0,0,-1,0,60.799999)"
         id="g14"><path
           id="path16"
           style="fill:none;stroke:#800000;stroke-width:1.69682801;stroke-linecap:round;stroke-linejoin:miter;stroke-miterlimit:4;stroke-dasharray:none;stroke-opacity:1"
           d="m 2.297,43.672 101.406,0.086" /></g><g
         transform="matrix(1,0,0,-1,0,60.799999)"
         id="g18"><path
           id="path20"
           style="fill:none;stroke:#000080;stroke-width:1.69682801;stroke-linecap:round;stroke-linejoin:miter;stroke-miterlimit:4;stroke-dasharray:none;stroke-opacity:1"
           d="M 2.297,43.672 C 9.621,33.07 11.93,15.582 24.27,11.871 51.59,3.652 77.223,33.129 103.703,43.758" /></g><path
         id="path22"
         style="fill:#800000;fill-opacity:1;fill-rule:nonzero;stroke:none"
         d="M 36.426,4.835 V 4.839 L 36.422,4.843 V 4.847 4.851 L 36.418,4.855 V 4.859 L 36.414,4.862 36.41,4.87 V 4.874 L 36.406,4.878 V 4.886 L 36.402,4.89 36.398,4.902 36.395,4.913 36.391,4.925 36.387,4.937 36.383,4.941 36.379,4.948 V 4.952 4.96 l -0.004,0.004 v 0.004 0.004 l -0.004,0.004 v 0.004 0.004 0.007 0 c 0,0.012 0.199,0.168 0.324,0.262 l 1.965,1.512 c 1.059,0.777 1.496,0.824 1.832,0.855 0.09,0.012 0.203,0.024 0.203,0.223 0,0.047 -0.035,0.125 -0.125,0.125 h -2.043 c -0.078,0 -0.215,0 -0.215,-0.223 0,-0.078 0.055,-0.113 0.137,-0.125 0.246,-0.023 0.348,-0.078 0.348,-0.234 0,-0.203 -0.336,-0.461 -0.406,-0.52 L 34.012,3.499 34.91,7.105 c 0.102,0.402 0.125,0.515 0.942,0.515 0.281,0 0.382,0 0.382,0.223 0,0.102 -0.089,0.125 -0.156,0.125 h -2.887 c -0.078,0 -0.226,0 -0.226,-0.215 0,-0.133 0.101,-0.133 0.328,-0.133 0.148,0 0.348,-0.011 0.484,-0.023 0.176,-0.02 0.246,-0.055 0.246,-0.18 0,-0.043 -0.011,-0.078 -0.043,-0.211 L 32.473,1.175 c -0.114,-0.441 -0.137,-0.531 -1.02,-0.531 -0.191,0 -0.316,0 -0.316,-0.211 0,-0.137 0.133,-0.137 0.168,-0.137 h 2.875 c 0.078,0 0.226,0 0.226,0.227 0,0.121 -0.101,0.121 -0.316,0.121 -0.414,0 -0.727,0 -0.727,0.203 0,0.082 0.063,0.328 0.098,0.496 0.156,0.582 0.305,1.18 0.449,1.762 l 1.676,1.304 c 0.289,-0.675 1.019,-2.347 1.301,-3.023 0.136,-0.301 0.136,-0.324 0.136,-0.391 0,-0.34 -0.484,-0.351 -0.585,-0.351 -0.122,0 -0.247,0 -0.247,-0.223 0,-0.125 0.137,-0.125 0.157,-0.125 h 2.468 c 0.059,0 0.204,0 0.204,0.227 0,0.121 -0.122,0.121 -0.223,0.121 -0.461,0.011 -0.606,0.113 -0.774,0.508 z" /><path
         id="path24"
         style="fill:#800000;fill-opacity:1;fill-rule:nonzero;stroke:none"
         d="m 51.727,3.972 h 0.031 0.035 0.035 0.016 0.015 l 0.016,0.004 h 0.016 l 0.015,0.004 0.016,0.004 0.016,0.003 h 0.015 l 0.016,0.004 0.015,0.008 0.012,0.004 0.012,0.008 0.012,0.008 0.015,0.008 0.012,0.007 0.008,0.008 0.011,0.012 0.008,0.012 0.004,0.007 0.004,0.004 0.004,0.008 0.004,0.004 0.004,0.008 v 0.008 l 0.004,0.007 0.004,0.008 v 0.008 l 0.003,0.008 v 0.012 0.007 l 0.004,0.008 v 0.012 0.012 0.008 c 0,0.226 -0.211,0.226 -0.371,0.226 h -6.726 c -0.16,0 -0.371,0 -0.371,-0.226 0,-0.223 0.211,-0.223 0.382,-0.223 z" /><path
         id="path26"
         style="fill:#800000;fill-opacity:1;fill-rule:nonzero;stroke:none"
         d="m 51.738,1.792 h 0.032 0.031 0.031 l 0.016,0.004 h 0.015 0.016 L 51.895,1.8 h 0.015 l 0.016,0.004 0.015,0.004 0.016,0.004 0.012,0.004 0.015,0.004 0.012,0.003 0.012,0.008 0.015,0.008 0.012,0.008 0.012,0.008 0.008,0.011 0.011,0.008 0.004,0.008 0.004,0.004 0.004,0.008 0.004,0.004 0.004,0.007 0.004,0.008 0.004,0.004 v 0.008 l 0.004,0.012 0.004,0.004 v 0.011 l 0.003,0.008 v 0.008 0.008 l 0.004,0.011 v 0.008 0.012 0.008 c 0,0.226 -0.211,0.226 -0.382,0.226 h -6.704 c -0.171,0 -0.382,0 -0.382,-0.226 0,-0.223 0.211,-0.223 0.371,-0.223 z" /><path
         id="path28"
         style="fill:#800000;fill-opacity:1;fill-rule:nonzero;stroke:none"
         d="m 63.387,10.73 h -0.004 v 0 -0.004 L 63.379,10.722 V 10.718 L 63.375,10.714 63.371,10.71 63.367,10.706 63.355,10.691 63.344,10.679 63.328,10.659 63.312,10.644 63.293,10.62 63.27,10.601 63.25,10.577 63.223,10.558 63.195,10.53 l -0.023,-0.023 -0.031,-0.023 -0.032,-0.028 -0.031,-0.023 -0.035,-0.024 -0.031,-0.027 -0.039,-0.023 -0.039,-0.02 -0.036,-0.023 -0.043,-0.02 -0.039,-0.019 -0.039,-0.02 -0.043,-0.016 -0.043,-0.015 -0.046,-0.012 -0.043,-0.008 -0.043,-0.008 -0.051,-0.003 -0.043,-0.004 c -0.258,0 -0.539,0.168 -0.731,0.281 -0.3,0.183 -0.504,0.258 -0.695,0.258 -0.43,0 -0.641,-0.246 -1.215,-0.875 l 0.18,-0.168 c 0,0.011 0.426,0.539 0.922,0.539 0.258,0 0.539,-0.168 0.73,-0.281 0.305,-0.18 0.508,-0.258 0.696,-0.258 0.425,0 0.64,0.246 1.214,0.875 z" /><path
         id="path30"
         style="fill:#800000;fill-opacity:1;fill-rule:nonzero;stroke:none"
         d="M 61.676,4.835 V 4.839 4.843 4.847 L 61.672,4.851 V 4.855 L 61.668,4.859 V 4.862 L 61.664,4.87 61.66,4.874 V 4.878 L 61.656,4.886 V 4.89 L 61.648,4.902 61.645,4.913 61.641,4.925 61.637,4.937 61.633,4.941 V 4.948 L 61.629,4.952 V 4.96 4.964 L 61.625,4.968 V 4.972 4.976 4.98 4.984 4.991 h -0.004 c 0,0.012 0.203,0.168 0.328,0.262 l 1.965,1.512 c 1.055,0.777 1.496,0.824 1.832,0.855 0.086,0.012 0.199,0.024 0.199,0.223 0,0.047 -0.035,0.125 -0.125,0.125 h -2.043 c -0.078,0 -0.211,0 -0.211,-0.223 0,-0.078 0.055,-0.113 0.133,-0.125 0.25,-0.023 0.352,-0.078 0.352,-0.234 0,-0.203 -0.34,-0.461 -0.406,-0.52 l -4.379,-3.367 0.898,3.606 c 0.102,0.402 0.121,0.515 0.941,0.515 0.282,0 0.383,0 0.383,0.223 0,0.102 -0.09,0.125 -0.156,0.125 h -2.887 c -0.078,0 -0.226,0 -0.226,-0.215 0,-0.133 0.101,-0.133 0.328,-0.133 0.144,0 0.348,-0.011 0.48,-0.023 0.18,-0.02 0.25,-0.055 0.25,-0.18 0,-0.043 -0.011,-0.078 -0.047,-0.211 L 57.727,1.175 C 57.613,0.734 57.59,0.644 56.703,0.644 c -0.191,0 -0.312,0 -0.312,-0.211 0,-0.137 0.132,-0.137 0.168,-0.137 h 2.875 c 0.078,0 0.222,0 0.222,0.227 0,0.121 -0.101,0.121 -0.316,0.121 -0.414,0 -0.727,0 -0.727,0.203 0,0.082 0.067,0.328 0.098,0.496 0.16,0.582 0.305,1.18 0.453,1.762 l 1.672,1.304 c 0.293,-0.675 1.023,-2.347 1.305,-3.023 0.132,-0.301 0.132,-0.324 0.132,-0.391 0,-0.34 -0.484,-0.351 -0.582,-0.351 -0.125,0 -0.25,0 -0.25,-0.223 0,-0.125 0.137,-0.125 0.161,-0.125 h 2.468 c 0.059,0 0.203,0 0.203,0.227 0,0.121 -0.125,0.121 -0.222,0.121 -0.465,0.011 -0.61,0.113 -0.778,0.508 z" /><path
         id="path32"
         style="fill:#000080;fill-opacity:1;fill-rule:nonzero;stroke:none"
         d="m 13.023,55.741 -0.003,0.008 v 0.004 0 l -0.004,0.004 v 0.008 l -0.004,0.004 v 0.004 l -0.004,0.007 v 0.004 L 13.004,55.788 13,55.796 V 55.8 l -0.008,0.012 -0.004,0.011 -0.004,0.008 -0.004,0.012 -0.003,0.008 v 0.004 l -0.004,0.007 v 0.004 0.004 l -0.004,0.004 v 0.008 0.004 0.004 0.004 0.004 0.004 c 0,0.011 0.199,0.168 0.324,0.257 l 1.965,1.516 c 1.054,0.777 1.492,0.82 1.832,0.855 0.09,0.012 0.203,0.024 0.203,0.223 0,0.043 -0.039,0.125 -0.129,0.125 h -2.043 c -0.078,0 -0.211,0 -0.211,-0.223 0,-0.082 0.055,-0.113 0.133,-0.125 0.25,-0.023 0.352,-0.078 0.352,-0.238 0,-0.199 -0.34,-0.461 -0.407,-0.515 l -4.383,-3.368 0.903,3.606 c 0.101,0.402 0.121,0.515 0.941,0.515 0.281,0 0.383,0 0.383,0.223 0,0.102 -0.09,0.125 -0.156,0.125 H 9.789 c -0.078,0 -0.227,0 -0.227,-0.215 0,-0.133 0.102,-0.133 0.329,-0.133 0.144,0 0.347,-0.011 0.48,-0.023 0.18,-0.023 0.25,-0.055 0.25,-0.18 0,-0.047 -0.016,-0.078 -0.047,-0.211 L 9.07,52.085 C 8.957,51.644 8.934,51.554 8.047,51.554 c -0.192,0 -0.317,0 -0.317,-0.211 0,-0.137 0.137,-0.137 0.172,-0.137 h 2.875 c 0.078,0 0.223,0 0.223,0.227 0,0.121 -0.102,0.121 -0.316,0.121 -0.414,0 -0.727,0 -0.727,0.203 0,0.078 0.066,0.328 0.098,0.492 0.16,0.586 0.304,1.18 0.453,1.766 l 1.672,1.301 c 0.293,-0.672 1.023,-2.348 1.304,-3.02 0.133,-0.301 0.133,-0.324 0.133,-0.394 0,-0.336 -0.484,-0.348 -0.582,-0.348 -0.125,0 -0.25,0 -0.25,-0.223 0,-0.125 0.137,-0.125 0.16,-0.125 h 2.469 c 0.055,0 0.203,0 0.203,0.227 0,0.121 -0.125,0.121 -0.222,0.121 -0.465,0.012 -0.61,0.113 -0.778,0.508 z" /><path
         id="path34"
         style="fill:#000080;fill-opacity:1;fill-rule:nonzero;stroke:none"
         d="m 18.387,56.343 0.008,-0.051 0.007,-0.047 0.012,-0.05 0.012,-0.051 0.012,-0.051 0.015,-0.047 0.012,-0.055 0.019,-0.046 0.02,-0.051 0.016,-0.051 0.019,-0.047 0.023,-0.047 0.024,-0.051 0.027,-0.046 0.028,-0.043 0.027,-0.043 0.031,-0.043 0.031,-0.043 0.036,-0.035 0.035,-0.04 0.039,-0.035 0.039,-0.031 0.043,-0.027 0.043,-0.028 0.047,-0.027 0.047,-0.023 0.05,-0.02 0.051,-0.016 0.059,-0.011 0.054,-0.008 0.059,-0.008 h 0.063 c 0.25,0 0.531,0.102 0.816,0.281 0.133,0.082 0.543,0.371 0.543,0.465 0,0.047 -0.055,0.149 -0.125,0.149 -0.043,0 -0.059,0 -0.176,-0.118 -0.336,-0.296 -0.699,-0.558 -1.051,-0.558 -0.535,0 -0.535,0.922 -0.535,1.07 0,0.102 0,0.117 0.016,0.266 0.008,0.082 0.008,0.094 0.101,0.183 0.434,0.407 1.918,1.84 1.918,3.207 0,0.118 0,0.684 -0.515,0.684 l -0.012,-0.223 c 0.18,0 0.277,-0.125 0.277,-0.406 0,-0.094 0,-0.793 -0.679,-1.762 -0.399,-0.566 -0.832,-0.992 -1.02,-1.172 v 0 c 0.141,0.805 0.762,3.34 1.422,3.34 l 0.012,0.223 c -0.657,0 -1.18,-1.016 -1.309,-1.25 -0.348,-0.668 -0.527,-1.313 -0.613,-1.707 -0.117,-0.527 -0.117,-0.801 -0.117,-1.188 -0.055,-0.054 -0.504,-0.453 -0.582,-0.519 -0.125,-0.109 -0.133,-0.117 -0.133,-0.164 0,-0.055 0.07,-0.141 0.133,-0.141 0.054,0 0.269,0.196 0.32,0.25 z" /><path
         id="path36"
         style="fill:#000000;fill-opacity:1;fill-rule:nonzero;stroke:none"
         d="M 4.242,17.452 C 4.242,16.28 3.293,15.331 2.121,15.331 0.949,15.331 0,16.28 0,17.452 c 0,1.172 0.949,2.121 2.121,2.121 1.172,0 2.121,-0.949 2.121,-2.121 z" /><path
         id="path38"
         style="fill:#000000;fill-opacity:1;fill-rule:nonzero;stroke:none"
         d="m 105.676,17.206 c 0,-1.172 -0.949,-2.121 -2.121,-2.121 -1.172,0 -2.121,0.949 -2.121,2.121 0,1.172 0.949,2.121 2.121,2.121 1.172,0 2.121,-0.949 2.121,-2.121 z" /><g
         transform="matrix(1,0,0,-1,0,60.799999)"
         id="g40"><path
           id="path42"
           style="fill:none;stroke:#000000;stroke-width:1.69682801;stroke-linecap:round;stroke-linejoin:miter;stroke-miterlimit:4;stroke-dasharray:none;stroke-opacity:1"
           d="m 128.969,43.672 101.406,0.086" /></g><g
         transform="matrix(1,0,0,-1,0,60.799999)"
         id="g44"><path
           id="path46"
           style="fill:none;stroke:#000080;stroke-width:1.69682801;stroke-linecap:round;stroke-linejoin:miter;stroke-miterlimit:4;stroke-dasharray:none;stroke-opacity:1"
           d="m 128.969,43.672 c 7.324,-10.602 9.633,-28.09 21.972,-31.801 27.321,-8.219 52.954,21.258 79.434,31.887" /></g><g
         transform="matrix(1,0,0,-1,0,60.799999)"
         id="g48"><path
           id="path50"
           style="fill:none;stroke:#999999;stroke-width:1.69682801;stroke-linecap:round;stroke-linejoin:miter;stroke-miterlimit:4;stroke-dasharray:none;stroke-opacity:1"
           d="m 128.969,43.672 101.406,0.086" /></g><g
         transform="matrix(1,0,0,-1,0,60.799999)"
         id="g52"><path
           id="path54"
           style="fill:none;stroke:#999999;stroke-width:1.69682801;stroke-linecap:butt;stroke-linejoin:miter;stroke-miterlimit:4;stroke-dasharray:none;stroke-opacity:1"
           d="m 180.094,43.684 13.734,-21.5" /></g><g
         transform="matrix(1,0,0,-1,0,60.799999)"
         id="g56"><path
           id="path58"
           style="fill:none;stroke:#800000;stroke-width:1.69682801;stroke-linecap:round;stroke-linejoin:miter;stroke-miterlimit:4;stroke-dasharray:none;stroke-opacity:1"
           d="m 128.969,43.672 c 0,0 42.125,-23.699 64.715,-21.32 14.082,1.484 36.691,21.406 36.691,21.406" /></g><path
         id="path60"
         style="fill:#000080;fill-opacity:1;fill-rule:nonzero;stroke:none"
         d="m 141.59,55.741 v 0.008 l -0.004,0.004 v 0 0.004 l -0.004,0.008 v 0.004 l -0.004,0.004 -0.004,0.007 v 0.004 l -0.004,0.004 v 0.008 l -0.004,0.004 -0.004,0.012 -0.003,0.011 -0.004,0.008 -0.004,0.012 -0.004,0.008 -0.004,0.004 v 0.007 0.004 l -0.004,0.004 v 0.004 0.008 l -0.004,0.004 v 0.004 0.004 0.004 0.004 c 0,0.011 0.199,0.168 0.324,0.257 l 1.965,1.516 c 1.059,0.777 1.496,0.82 1.832,0.855 0.09,0.012 0.203,0.024 0.203,0.223 0,0.043 -0.035,0.125 -0.125,0.125 h -2.043 c -0.078,0 -0.214,0 -0.214,-0.223 0,-0.082 0.054,-0.113 0.136,-0.125 0.246,-0.023 0.348,-0.078 0.348,-0.238 0,-0.199 -0.336,-0.461 -0.406,-0.515 l -4.379,-3.368 0.898,3.606 c 0.102,0.402 0.125,0.515 0.942,0.515 0.281,0 0.382,0 0.382,0.223 0,0.102 -0.089,0.125 -0.156,0.125 h -2.887 c -0.078,0 -0.226,0 -0.226,-0.215 0,-0.133 0.101,-0.133 0.328,-0.133 0.148,0 0.348,-0.011 0.484,-0.023 0.176,-0.023 0.247,-0.055 0.247,-0.18 0,-0.047 -0.012,-0.078 -0.043,-0.211 l -1.508,-6.031 c -0.114,-0.441 -0.137,-0.531 -1.02,-0.531 -0.191,0 -0.316,0 -0.316,-0.211 0,-0.137 0.133,-0.137 0.168,-0.137 h 2.875 c 0.078,0 0.226,0 0.226,0.227 0,0.121 -0.101,0.121 -0.316,0.121 -0.414,0 -0.727,0 -0.727,0.203 0,0.078 0.063,0.328 0.098,0.492 0.156,0.586 0.305,1.18 0.449,1.766 l 1.676,1.301 c 0.289,-0.672 1.02,-2.348 1.301,-3.02 0.137,-0.301 0.137,-0.324 0.137,-0.394 0,-0.336 -0.485,-0.348 -0.586,-0.348 -0.122,0 -0.247,0 -0.247,-0.223 0,-0.125 0.137,-0.125 0.157,-0.125 h 2.468 c 0.059,0 0.204,0 0.204,0.227 0,0.121 -0.125,0.121 -0.223,0.121 -0.461,0.012 -0.606,0.113 -0.773,0.508 z" /><path
         id="path62"
         style="fill:#000080;fill-opacity:1;fill-rule:nonzero;stroke:none"
         d="m 146.957,56.343 0.004,-0.051 0.012,-0.047 0.011,-0.05 0.008,-0.051 0.016,-0.051 0.012,-0.047 0.015,-0.055 0.016,-0.046 0.019,-0.051 0.02,-0.051 0.019,-0.047 0.024,-0.047 0.023,-0.051 0.024,-0.046 0.027,-0.043 0.031,-0.043 0.032,-0.043 0.031,-0.043 0.035,-0.035 0.035,-0.04 0.039,-0.035 0.035,-0.031 0.043,-0.027 0.043,-0.028 0.047,-0.027 0.051,-0.023 0.047,-0.02 0.054,-0.016 0.055,-0.011 0.055,-0.008 0.058,-0.008 h 0.063 c 0.254,0 0.535,0.102 0.82,0.281 0.133,0.082 0.543,0.371 0.543,0.465 0,0.047 -0.058,0.149 -0.129,0.149 -0.039,0 -0.054,0 -0.172,-0.118 -0.339,-0.296 -0.703,-0.558 -1.054,-0.558 -0.531,0 -0.531,0.922 -0.531,1.07 0,0.102 0,0.117 0.015,0.266 0.004,0.082 0.004,0.094 0.102,0.183 0.429,0.407 1.918,1.84 1.918,3.207 0,0.118 0,0.684 -0.52,0.684 l -0.008,-0.223 c 0.18,0 0.274,-0.125 0.274,-0.406 0,-0.094 0,-0.793 -0.676,-1.762 -0.402,-0.566 -0.832,-0.992 -1.023,-1.172 v 0 c 0.144,0.805 0.765,3.34 1.425,3.34 l 0.008,0.223 c -0.652,0 -1.18,-1.016 -1.305,-1.25 -0.347,-0.668 -0.527,-1.313 -0.613,-1.707 -0.117,-0.527 -0.117,-0.801 -0.117,-1.188 -0.059,-0.054 -0.504,-0.453 -0.586,-0.519 -0.121,-0.109 -0.133,-0.117 -0.133,-0.164 0,-0.055 0.074,-0.141 0.133,-0.141 0.059,0 0.27,0.196 0.324,0.25 z" /><path
         id="path64"
         style="fill:#800000;fill-opacity:1;fill-rule:nonzero;stroke:none"
         d="m 217.395,37.241 v 0.004 l -0.004,0.004 v 0.004 l -0.004,0.004 v 0.004 l -0.004,0.004 v 0.004 l -0.004,0.008 v 0.003 l -0.004,0.004 -0.004,0.008 v 0.004 l -0.004,0.012 -0.004,0.012 -0.008,0.011 -0.003,0.012 v 0.004 l -0.004,0.004 -0.004,0.008 v 0.003 0.008 l -0.004,0.004 v 0.004 0.004 0.004 0.004 0.004 0.004 c 0,0.011 0.199,0.168 0.324,0.257 l 1.965,1.516 c 1.055,0.777 1.492,0.82 1.832,0.856 0.09,0.011 0.203,0.023 0.203,0.222 0,0.047 -0.035,0.125 -0.129,0.125 h -2.039 c -0.082,0 -0.215,0 -0.215,-0.222 0,-0.079 0.055,-0.114 0.133,-0.125 0.25,-0.024 0.352,-0.079 0.352,-0.239 0,-0.199 -0.34,-0.457 -0.407,-0.515 l -4.382,-3.368 0.902,3.606 c 0.101,0.402 0.121,0.516 0.941,0.516 0.282,0 0.383,0 0.383,0.222 0,0.102 -0.09,0.125 -0.156,0.125 h -2.887 c -0.078,0 -0.226,0 -0.226,-0.215 0,-0.132 0.101,-0.132 0.328,-0.132 0.144,0 0.347,-0.012 0.48,-0.024 0.18,-0.023 0.25,-0.055 0.25,-0.18 0,-0.043 -0.015,-0.078 -0.047,-0.211 l -1.504,-6.031 c -0.113,-0.441 -0.136,-0.531 -1.023,-0.531 -0.191,0 -0.313,0 -0.313,-0.211 0,-0.137 0.133,-0.137 0.168,-0.137 h 2.875 c 0.079,0 0.223,0 0.223,0.227 0,0.121 -0.101,0.121 -0.312,0.121 -0.418,0 -0.731,0 -0.731,0.203 0,0.078 0.067,0.328 0.102,0.496 0.156,0.582 0.304,1.176 0.449,1.762 l 1.672,1.305 c 0.293,-0.676 1.023,-2.348 1.304,-3.024 0.137,-0.301 0.137,-0.324 0.137,-0.39 0,-0.34 -0.488,-0.352 -0.586,-0.352 -0.125,0 -0.246,0 -0.246,-0.223 0,-0.125 0.133,-0.125 0.156,-0.125 h 2.469 c 0.055,0 0.203,0 0.203,0.227 0,0.121 -0.125,0.121 -0.222,0.121 -0.465,0.012 -0.606,0.113 -0.778,0.508 z" /><path
         id="path66"
         style="fill:#999999;fill-opacity:1;fill-rule:nonzero;stroke:none"
         d="m 179.812,11.214 h -0.003 v 0 -0.004 h -0.004 l -0.004,-0.008 v -0.004 l -0.004,-0.003 -0.004,-0.004 -0.012,-0.016 -0.011,-0.012 -0.016,-0.019 -0.016,-0.016 -0.019,-0.019 -0.024,-0.024 -0.019,-0.019 -0.028,-0.024 -0.027,-0.027 -0.027,-0.024 -0.028,-0.023 -0.031,-0.027 -0.031,-0.024 -0.035,-0.023 -0.035,-0.028 -0.036,-0.019 -0.039,-0.024 -0.035,-0.023 -0.043,-0.02 -0.039,-0.019 -0.043,-0.02 -0.043,-0.015 -0.043,-0.012 -0.043,-0.016 -0.043,-0.007 -0.047,-0.008 -0.046,-0.004 -0.043,-0.004 c -0.258,0 -0.539,0.172 -0.731,0.281 -0.305,0.184 -0.508,0.258 -0.695,0.258 -0.43,0 -0.641,-0.246 -1.215,-0.875 l 0.18,-0.168 c 0,0.012 0.425,0.543 0.922,0.543 0.257,0 0.539,-0.172 0.726,-0.285 0.305,-0.18 0.508,-0.258 0.699,-0.258 0.426,0 0.641,0.25 1.211,0.879 z" /><path
         id="path68"
         style="fill:#999999;fill-opacity:1;fill-rule:nonzero;stroke:none"
         d="m 178.105,5.32 -0.003,0.003 v 0.004 0.004 l -0.004,0.004 v 0.004 l -0.004,0.004 -0.004,0.004 v 0.008 0.004 l -0.004,0.003 -0.004,0.008 -0.004,0.004 -0.004,0.012 -0.004,0.012 -0.004,0.011 -0.004,0.012 -0.003,0.008 v 0.004 l -0.004,0.008 v 0.004 0.003 l -0.004,0.004 v 0.004 l -0.004,0.004 v 0.004 0.008 0.004 0 c 0,0.011 0.203,0.172 0.328,0.261 l 1.965,1.516 c 1.055,0.774 1.492,0.82 1.828,0.852 0.094,0.011 0.203,0.023 0.203,0.222 0,0.047 -0.035,0.125 -0.125,0.125 h -2.043 c -0.078,0 -0.215,0 -0.215,-0.222 0,-0.078 0.059,-0.114 0.137,-0.125 0.246,-0.02 0.348,-0.078 0.348,-0.235 0,-0.203 -0.336,-0.461 -0.403,-0.515 l -4.382,-3.371 0.898,3.605 c 0.102,0.402 0.125,0.516 0.945,0.516 0.281,0 0.383,0 0.383,0.222 0,0.102 -0.09,0.125 -0.16,0.125 h -2.883 c -0.082,0 -0.226,0 -0.226,-0.215 0,-0.132 0.101,-0.132 0.328,-0.132 0.144,0 0.343,-0.012 0.48,-0.02 0.18,-0.023 0.25,-0.058 0.25,-0.183 0,-0.043 -0.015,-0.079 -0.047,-0.211 l -1.508,-6.032 c -0.109,-0.437 -0.132,-0.531 -1.019,-0.531 -0.191,0 -0.317,0 -0.317,-0.211 0,-0.133 0.137,-0.133 0.168,-0.133 h 2.875 c 0.083,0 0.227,0 0.227,0.223 0,0.121 -0.102,0.121 -0.316,0.121 -0.414,0 -0.727,0 -0.727,0.203 0,0.082 0.066,0.328 0.098,0.496 0.16,0.582 0.304,1.18 0.453,1.762 l 1.672,1.305 c 0.289,-0.676 1.019,-2.348 1.304,-3.024 0.133,-0.3 0.133,-0.324 0.133,-0.39 0,-0.34 -0.484,-0.352 -0.582,-0.352 -0.125,0 -0.25,0 -0.25,-0.223 0,-0.121 0.137,-0.121 0.16,-0.121 h 2.469 c 0.055,0 0.203,0 0.203,0.223 0,0.121 -0.125,0.121 -0.226,0.121 -0.461,0.012 -0.606,0.113 -0.774,0.508 z" /><path
         id="path70"
         style="fill:#000000;fill-opacity:1;fill-rule:nonzero;stroke:none"
         d="m 131.035,17.187 c 0,-1.172 -0.949,-2.121 -2.121,-2.121 -1.172,0 -2.121,0.949 -2.121,2.121 0,1.172 0.949,2.121 2.121,2.121 1.172,0 2.121,-0.949 2.121,-2.121 z" /><path
         id="path72"
         style="fill:#000000;fill-opacity:1;fill-rule:nonzero;stroke:none"
         d="m 232.961,16.695 c 0,-1.172 -0.949,-2.122 -2.121,-2.122 -1.172,0 -2.121,0.95 -2.121,2.122 0,1.171 0.949,2.121 2.121,2.121 1.172,0 2.121,-0.95 2.121,-2.121 z" /><path
         id="path74"
         style="fill:#000000;fill-opacity:1;fill-rule:nonzero;stroke:none"
         d="m 195.785,38.112 c 0,-1.171 -0.949,-2.121 -2.121,-2.121 -1.172,0 -2.121,0.95 -2.121,2.121 0,1.172 0.949,2.122 2.121,2.122 1.172,0 2.121,-0.95 2.121,-2.122 z" /><path
         id="path76"
         style="fill:#666666;fill-opacity:1;fill-rule:nonzero;stroke:none"
         d="m 181.75,17.187 c 0,-1.172 -0.949,-2.121 -2.121,-2.121 -1.168,0 -2.121,0.949 -2.121,2.121 0,1.172 0.953,2.121 2.121,2.121 1.172,0 2.121,-0.949 2.121,-2.121 z" /><g
         transform="matrix(1,0,0,-1,0,60.799999)"
         id="g78"><path
           id="path80"
           style="fill:none;stroke:#000080;stroke-width:1.69682801;stroke-linecap:round;stroke-linejoin:miter;stroke-miterlimit:4;stroke-dasharray:none;stroke-opacity:1"
           d="m 255.988,43.672 c 7.324,-10.602 9.633,-28.09 21.973,-31.801 27.324,-8.219 52.957,21.258 79.434,31.887" /></g><g
         transform="matrix(1,0,0,-1,0,60.799999)"
         id="g82"><path
           id="path84"
           style="fill:none;stroke:#999999;stroke-width:1.69682801;stroke-linecap:round;stroke-linejoin:miter;stroke-miterlimit:4;stroke-dasharray:none;stroke-opacity:1"
           d="m 255.988,43.672 101.407,0.086" /></g><g
         transform="matrix(1,0,0,-1,0,60.799999)"
         id="g86"><path
           id="path88"
           style="fill:none;stroke:#999999;stroke-width:1.69682801;stroke-linecap:butt;stroke-linejoin:miter;stroke-miterlimit:4;stroke-dasharray:none;stroke-opacity:1"
           d="M 284.129,43.496 261.938,32.121" /></g><g
         transform="matrix(1,0,0,-1,0,60.799999)"
         id="g90"><path
           id="path92"
           style="fill:none;stroke:#999999;stroke-width:1.69682801;stroke-linecap:butt;stroke-linejoin:miter;stroke-miterlimit:4;stroke-dasharray:none;stroke-opacity:1"
           d="M 312.289,43.773 325.188,25.047" /></g><g
         transform="matrix(1,0,0,-1,0,60.799999)"
         id="g94"><path
           id="path96"
           style="fill:none;stroke:#800000;stroke-width:1.69682801;stroke-linecap:round;stroke-linejoin:miter;stroke-miterlimit:4;stroke-dasharray:none;stroke-opacity:1"
           d="m 255.988,43.672 c 0,0 2.254,-9.152 5.809,-11.621 17.394,-12.086 42.441,-11.117 63.172,-6.793 12.183,2.543 32.426,18.5 32.426,18.5" /></g><path
         id="path98"
         style="fill:#000080;fill-opacity:1;fill-rule:nonzero;stroke:none"
         d="m 270.375,55.741 v 0.008 l -0.004,0.004 v 0 0.004 l -0.004,0.008 v 0.004 l -0.004,0.004 -0.004,0.007 v 0.004 l -0.004,0.004 v 0.008 l -0.003,0.004 -0.004,0.012 -0.004,0.011 -0.004,0.008 -0.008,0.012 v 0.008 l -0.004,0.004 v 0.007 0.004 l -0.004,0.004 v 0.004 0.008 l -0.004,0.004 v 0.004 0.004 0.004 0.004 c 0,0.011 0.2,0.168 0.325,0.257 l 1.964,1.516 c 1.059,0.777 1.496,0.82 1.832,0.855 0.09,0.012 0.204,0.024 0.204,0.223 0,0.043 -0.036,0.125 -0.125,0.125 h -2.043 c -0.079,0 -0.215,0 -0.215,-0.223 0,-0.082 0.054,-0.113 0.136,-0.125 0.247,-0.023 0.348,-0.078 0.348,-0.238 0,-0.199 -0.34,-0.461 -0.406,-0.515 l -4.379,-3.368 0.898,3.606 c 0.102,0.402 0.125,0.515 0.942,0.515 0.281,0 0.383,0 0.383,0.223 0,0.102 -0.09,0.125 -0.157,0.125 h -2.886 c -0.079,0 -0.227,0 -0.227,-0.215 0,-0.133 0.102,-0.133 0.328,-0.133 0.149,0 0.348,-0.011 0.485,-0.023 0.175,-0.023 0.246,-0.055 0.246,-0.18 0,-0.047 -0.012,-0.078 -0.043,-0.211 l -1.508,-6.031 c -0.113,-0.441 -0.137,-0.531 -1.02,-0.531 -0.191,0 -0.316,0 -0.316,-0.211 0,-0.137 0.133,-0.137 0.168,-0.137 h 2.875 c 0.078,0 0.226,0 0.226,0.227 0,0.121 -0.101,0.121 -0.316,0.121 -0.414,0 -0.73,0 -0.73,0.203 0,0.078 0.066,0.328 0.101,0.492 0.156,0.586 0.305,1.18 0.449,1.766 l 1.676,1.301 c 0.289,-0.672 1.02,-2.348 1.301,-3.02 0.137,-0.301 0.137,-0.324 0.137,-0.394 0,-0.336 -0.485,-0.348 -0.586,-0.348 -0.121,0 -0.246,0 -0.246,-0.223 0,-0.125 0.132,-0.125 0.156,-0.125 h 2.469 c 0.058,0 0.203,0 0.203,0.227 0,0.121 -0.125,0.121 -0.223,0.121 -0.461,0.012 -0.605,0.113 -0.773,0.508 z" /><path
         id="path100"
         style="fill:#000080;fill-opacity:1;fill-rule:nonzero;stroke:none"
         d="m 275.742,56.343 0.004,-0.051 0.012,-0.047 0.008,-0.05 0.011,-0.051 0.016,-0.051 0.012,-0.047 0.015,-0.055 0.016,-0.046 0.019,-0.051 0.02,-0.051 0.02,-0.047 0.023,-0.047 0.023,-0.051 0.024,-0.046 0.027,-0.043 0.031,-0.043 0.032,-0.043 0.031,-0.043 0.035,-0.035 0.035,-0.04 0.039,-0.035 0.035,-0.031 0.043,-0.027 0.043,-0.028 0.047,-0.027 0.051,-0.023 0.047,-0.02 0.055,-0.016 0.054,-0.011 0.055,-0.008 0.059,-0.008 h 0.062 c 0.254,0 0.535,0.102 0.82,0.281 0.133,0.082 0.543,0.371 0.543,0.465 0,0.047 -0.058,0.149 -0.129,0.149 -0.039,0 -0.054,0 -0.171,-0.118 -0.34,-0.296 -0.704,-0.558 -1.055,-0.558 -0.531,0 -0.531,0.922 -0.531,1.07 0,0.102 0,0.117 0.015,0.266 0.004,0.082 0.004,0.094 0.102,0.183 0.43,0.407 1.918,1.84 1.918,3.207 0,0.118 0,0.684 -0.52,0.684 l -0.008,-0.223 c 0.18,0 0.274,-0.125 0.274,-0.406 0,-0.094 0,-0.793 -0.676,-1.762 -0.402,-0.566 -0.832,-0.992 -1.023,-1.172 v 0 c 0.144,0.805 0.765,3.34 1.425,3.34 l 0.008,0.223 c -0.652,0 -1.179,-1.016 -1.304,-1.25 -0.348,-0.668 -0.528,-1.313 -0.614,-1.707 -0.117,-0.527 -0.117,-0.801 -0.117,-1.188 -0.058,-0.054 -0.508,-0.453 -0.586,-0.519 -0.121,-0.109 -0.133,-0.117 -0.133,-0.164 0,-0.055 0.075,-0.141 0.133,-0.141 0.059,0 0.27,0.196 0.324,0.25 z" /><path
         id="path102"
         style="fill:#800000;fill-opacity:1;fill-rule:nonzero;stroke:none"
         d="m 345.172,37.82 v 0.003 l -0.004,0.004 v 0 l -0.004,0.008 v 0.004 l -0.004,0.004 v 0.004 l -0.004,0.008 v 0.004 l -0.004,0.003 -0.004,0.008 v 0.004 l -0.003,0.012 -0.004,0.012 -0.008,0.011 -0.004,0.012 v 0.004 l -0.004,0.004 -0.004,0.008 v 0.004 0.007 l -0.004,0.004 v 0.004 0.004 0.004 0.004 0.004 0.004 c 0,0.011 0.199,0.168 0.324,0.258 l 1.965,1.515 c 1.055,0.778 1.492,0.821 1.832,0.856 0.09,0.011 0.203,0.023 0.203,0.222 0,0.047 -0.035,0.125 -0.129,0.125 h -2.039 c -0.082,0 -0.214,0 -0.214,-0.222 0,-0.078 0.054,-0.114 0.132,-0.125 0.25,-0.024 0.352,-0.078 0.352,-0.239 0,-0.199 -0.34,-0.457 -0.406,-0.515 l -4.383,-3.367 0.902,3.605 c 0.102,0.402 0.121,0.516 0.942,0.516 0.281,0 0.382,0 0.382,0.222 0,0.102 -0.089,0.125 -0.156,0.125 h -2.886 c -0.079,0 -0.227,0 -0.227,-0.215 0,-0.132 0.101,-0.132 0.328,-0.132 0.145,0 0.348,-0.012 0.481,-0.024 0.179,-0.023 0.25,-0.054 0.25,-0.179 0,-0.043 -0.016,-0.079 -0.047,-0.211 l -1.504,-6.032 c -0.114,-0.441 -0.137,-0.531 -1.024,-0.531 -0.191,0 -0.312,0 -0.312,-0.211 0,-0.137 0.133,-0.137 0.168,-0.137 h 2.875 c 0.078,0 0.222,0 0.222,0.227 0,0.121 -0.101,0.121 -0.312,0.121 -0.418,0 -0.731,0 -0.731,0.203 0,0.078 0.067,0.328 0.102,0.496 0.156,0.582 0.305,1.176 0.449,1.762 l 1.672,1.305 c 0.293,-0.676 1.024,-2.348 1.305,-3.024 0.137,-0.3 0.137,-0.324 0.137,-0.39 0,-0.34 -0.489,-0.352 -0.586,-0.352 -0.125,0 -0.246,0 -0.246,-0.223 0,-0.125 0.132,-0.125 0.156,-0.125 h 2.468 c 0.055,0 0.204,0 0.204,0.227 0,0.121 -0.125,0.121 -0.223,0.121 -0.465,0.012 -0.605,0.113 -0.777,0.508 z" /><path
         id="path104"
         style="fill:#999999;fill-opacity:1;fill-rule:nonzero;stroke:none"
         d="m 307.098,14.749 h -0.004 v -0.004 -0.004 h -0.004 l -0.004,-0.004 v -0.003 l -0.004,-0.008 -0.004,-0.004 -0.012,-0.012 -0.011,-0.015 -0.016,-0.016 -0.016,-0.02 -0.023,-0.019 -0.02,-0.02 -0.019,-0.023 -0.027,-0.024 -0.028,-0.023 -0.027,-0.027 -0.027,-0.024 -0.032,-0.023 -0.031,-0.028 -0.035,-0.023 -0.035,-0.023 -0.035,-0.024 -0.039,-0.023 -0.04,-0.024 -0.039,-0.019 -0.039,-0.02 -0.043,-0.019 -0.043,-0.016 -0.043,-0.012 -0.043,-0.015 -0.043,-0.008 -0.046,-0.008 -0.047,-0.004 h -0.043 c -0.258,0 -0.539,0.168 -0.731,0.281 -0.304,0.18 -0.507,0.258 -0.695,0.258 -0.43,0 -0.641,-0.246 -1.215,-0.875 l 0.18,-0.172 c 0,0.012 0.426,0.543 0.922,0.543 0.258,0 0.539,-0.168 0.726,-0.281 0.305,-0.18 0.508,-0.262 0.699,-0.262 0.426,0 0.641,0.25 1.211,0.879 z" /><path
         id="path106"
         style="fill:#999999;fill-opacity:1;fill-rule:nonzero;stroke:none"
         d="m 305.391,8.851 -0.004,0.004 v 0.007 0 l -0.004,0.004 -0.004,0.004 v 0.008 l -0.004,0.004 v 0.004 0.008 l -0.004,0.004 -0.004,0.004 -0.004,0.007 -0.004,0.012 -0.004,0.008 -0.003,0.012 -0.004,0.011 -0.004,0.008 V 8.964 L 305.34,8.972 V 8.976 8.98 l -0.004,0.004 v 0.003 l -0.004,0.008 v 0.004 0.004 0.004 0.004 c 0,0.012 0.203,0.168 0.324,0.258 l 1.969,1.515 c 1.055,0.774 1.492,0.821 1.828,0.856 0.094,0.012 0.203,0.019 0.203,0.222 0,0.043 -0.035,0.125 -0.125,0.125 h -2.043 c -0.078,0 -0.215,0 -0.215,-0.226 0,-0.078 0.059,-0.109 0.137,-0.121 0.246,-0.024 0.348,-0.082 0.348,-0.238 0,-0.2 -0.336,-0.461 -0.403,-0.516 l -4.382,-3.367 0.898,3.601 c 0.102,0.407 0.125,0.52 0.945,0.52 0.282,0 0.383,0 0.383,0.222 0,0.102 -0.09,0.125 -0.16,0.125 h -2.883 c -0.082,0 -0.226,0 -0.226,-0.214 0,-0.133 0.101,-0.133 0.324,-0.133 0.148,0 0.348,-0.012 0.484,-0.024 0.18,-0.023 0.25,-0.058 0.25,-0.179 0,-0.047 -0.015,-0.082 -0.047,-0.215 l -1.507,-6.031 c -0.11,-0.438 -0.133,-0.528 -1.02,-0.528 -0.191,0 -0.316,0 -0.316,-0.211 0,-0.136 0.136,-0.136 0.168,-0.136 h 2.875 c 0.082,0 0.226,0 0.226,0.226 0,0.121 -0.101,0.121 -0.316,0.121 -0.414,0 -0.727,0 -0.727,0.203 0,0.079 0.067,0.325 0.098,0.493 0.16,0.586 0.305,1.179 0.453,1.765 l 1.672,1.301 c 0.289,-0.672 1.019,-2.348 1.305,-3.02 0.132,-0.304 0.132,-0.324 0.132,-0.394 0,-0.336 -0.484,-0.348 -0.582,-0.348 -0.125,0 -0.25,0 -0.25,-0.222 0,-0.125 0.137,-0.125 0.16,-0.125 h 2.469 c 0.055,0 0.203,0 0.203,0.226 0,0.121 -0.125,0.121 -0.226,0.121 -0.461,0.012 -0.606,0.114 -0.774,0.508 z" /><path
         id="path108"
         style="fill:#000000;fill-opacity:1;fill-rule:nonzero;stroke:none"
         d="m 258.074,16.534 c 0,-1.172 -0.949,-2.121 -2.121,-2.121 -1.172,0 -2.121,0.949 -2.121,2.121 0,1.172 0.949,2.121 2.121,2.121 1.172,0 2.121,-0.949 2.121,-2.121 z" /><path
         id="path110"
         style="fill:#666666;fill-opacity:1;fill-rule:nonzero;stroke:none"
         d="m 285.648,16.534 c 0,-1.172 -0.949,-2.121 -2.121,-2.121 -1.172,0 -2.121,0.949 -2.121,2.121 0,1.172 0.949,2.121 2.121,2.121 1.172,0 2.121,-0.949 2.121,-2.121 z" /><path
         id="path112"
         style="fill:#666666;fill-opacity:1;fill-rule:nonzero;stroke:none"
         d="m 314.453,16.78 c 0,-1.171 -0.949,-2.121 -2.121,-2.121 -1.172,0 -2.121,0.95 -2.121,2.121 0,1.172 0.949,2.122 2.121,2.122 1.172,0 2.121,-0.95 2.121,-2.122 z" /><path
         id="path114"
         style="fill:#000000;fill-opacity:1;fill-rule:nonzero;stroke:none"
         d="m 360,16.534 c 0,-1.172 -0.949,-2.121 -2.121,-2.121 -1.172,0 -2.121,0.949 -2.121,2.121 0,1.172 0.949,2.121 2.121,2.121 1.172,0 2.121,-0.949 2.121,-2.121 z" /><path
         id="path116"
         style="fill:#000000;fill-opacity:1;fill-rule:nonzero;stroke:none"
         d="m 327.254,35.984 c 0,-1.172 -0.949,-2.122 -2.121,-2.122 -1.168,0 -2.121,0.95 -2.121,2.122 0,1.171 0.953,2.121 2.121,2.121 1.172,0 2.121,-0.95 2.121,-2.121 z" /><path
         id="path118"
         style="fill:#000000;fill-opacity:1;fill-rule:nonzero;stroke:none"
         d="m 264.477,28.597 c 0,-1.172 -0.954,-2.121 -2.122,-2.121 -1.171,0 -2.121,0.949 -2.121,2.121 0,1.172 0.95,2.121 2.121,2.121 1.168,0 2.122,-0.949 2.122,-2.121 z" /></g></g></svg>